{
  "local": {
    "host": "localhost",
    "port": "5000",
    "client_id": "public",
    "client_secret": "public",
    "state": "state",
    "scope": "company user pimpy examination group form",

    "base64_public": "cHVibGljOnB1YmxpYw=="
  }
}
