{
    "en": {
        "breadcrumb.challenges": "Challenges",
        "breadcrumb.submission": "Manual solution",
        "title": "Add manual submission",
        "notification.message": "Manual submission success",
        "notification.description": "The manual submission has been created."
    },
    "nl": {
        "breadcrumb.challenges": "Challenges",
        "breadcrumb.submission": "Handmatige oplossing",
        "title": "Voeg handmatig een oplossing toe",
        "notification.message": "Handmatige oplossing opgeslagen",
        "notification.description": "De handmatige oplossing is aangemaakt."
    }
}
