{
    "en": {
        "form.project.label": "Project",
        "form.project.value.pos": "Point of Sale (pos.svia.nl)",
        "form.project.value.pretix": "Pretix (pretix.svia.nl)",
        "form.project.value.viaduct": "Website (svia.nl)",
        "form.title.label": "Title",
        "form.description.label": "Description"
    },
    "nl": {
        "form.project.label": "Project",
        "form.project.value.pos": "Point of Sale (pos.svia.nl)",
        "form.project.value.pretix": "Pretix (pretix.svia.nl)",
        "form.project.value.viaduct": "Website (svia.nl)",
        "form.title.label": "Titel",
        "form.description.label": "Beschrijving"
    }
}
