{
    "en": {
        "Actions": "Actions",
        "All redirects": "All redirects",
        "Are you sure?": "Are you sure?",
        "Delete": "Delete",
        "From which URL would you like to redirect?": "From which URL would you like to redirect?",
        "From": "From",
        "Open link": "Open link",
        "Redirects": "Redirects",
        "Save": "Save",
        "Search redirect": "Search redirect",
        "To which URL?": "To which URL?",
        "To": "To"
    },
    "nl": {
        "Actions": "Acties",
        "All redirects": "Alle omleidingen",
        "Are you sure?": "Weet je het zeker?",
        "Delete": "Verwijderen",
        "From which URL would you like to redirect?": "Van welke URL zou je graag willen omleiden?",
        "From": "Van",
        "Open link": "Open link",
        "Redirects": "Omleidingen",
        "Save": "Opslaan",
        "Search redirect": "Zoek redirect",
        "To which URL?": "Naar welke URL?",
        "To": "Naar"
    }
}
