{
    "en": {
        "awarded": "Presented by the general assembly of {date} for extraordinary efforts during many years.",
        "readmore": "Read more about {name}"
    },
    "nl": {
        "awarded": "Toegekend door de algemene ledenvergadering op {date} wegens buitengewone inzet gedurende vele jaren.",
        "readmore": "Lees meer over {name}"
    }
}
