{
    "en": {
        "Connected applications": "Connected applications",
        "confirmation_message": "Are you sure you want to revoke this application's access?",
        "Revoke": "Revoke",
        "Owner": "Owner"
    },
    "nl": {
        "Connected applications": "Verbonden applicaties",
        "confirmation_message": "Weet je zeker dat je de toegang van deze applicatie wil intrekken?",
        "Revoke": "Intrekken",
        "Owner": "Eigenaar"
    }
}
