{
    "en": {
        "accepted": "accepted",
        "Accepted requests": "Accepted requests",
        "Course": "Course",
        "course.code": "Course catalogue number",
        "Datanose code": "DataNose code",
        "Enrolled courses": "Enrolled courses",
        "datanose_unavailable": "Datanose is currently not available. Please use the search bar to search all available courses.",
        "search": "Search all courses by name or code",
        "search.help": "Are you missing a course? Help us update our data using a {course.code}.",
        "open": "open",
        "Open requests": "Open requests",
        "No enrolled courses found": "No enrolled courses found.",
        "no_requests": "There are currently no {kind} tutoring requests for you.",
        "Tutoring": "Tutoring",
        "Request tutoring": "Request tutoring",
        "Register as tutor": "Register as tutor",
        "unconfirmed_user": "Connect your UvAnetID {here} to automatically view your enrolled courses."
    },
    "nl": {
        "accepted": "geaccepteerde",
        "Accepted requests": "Geaccepteerde aanvragen",
        "Course": "Vak",
        "course.code": "Studiegidsnummer",
        "Datanose code": "DataNose code",
        "Enrolled courses": "Ingeschreven vakken",
        "datanose_unavailable": "Datanose is nu niet beschikbaar. Gebruik de zoekbalk om door alle vakken heen te zoeken.",
        "search": "Zoek in alle vakken op naam of vakcode",
        "search.help": "Missen er vakken? Help ons onze data up-to-date te houden met een {course.code}.",
        "Open requests": "Openstaande aanvragen",
        "open": "openstaande",
        "No enrolled courses found": "Geen ingeschreven vakken gevonden.",
        "no_requests": "Er zijn op dit moment geen {kind} bijlesaanvragen van jou.",
        "Tutoring": "Bijles",
        "Request tutoring": "Bijlesaanvraag",
        "Register as tutor": "Registreer als bijlesdocent",
        "unconfirmed_user": "Koppel je UvAnetID {here} om automatisch jouw ingeschreven vakken hier te zien."
    }
}
